{

  "data_dir" : "data/",
  "output_dir" : "output/",

  "exp_id_to_exp_label" : {
    "ec" : "eyes closed",
	"eo" : "eyes opened",
    "n1" : "first series of neutral images after positive",
	"n2" : "second series of neutral images after negative",
    "neg" : "negative faces",
	"pos" : "positive faces"
  },

  "freq_bands" : {
        "theta1": [3.5, 5.8],
        "theta2": [5.9, 7.4],
        "alpha1": [7.5, 9.4],
        "alpha2": [9.5, 10.7],
        "alpha3": [10.8, 13.5],
        "beta1": [13.6, 25],
        "beta2": [25.1, 40]
},

  "multiprocessing" : {
    "enable" : 1,
    "cpu_num" : 8
  },

  "channel_labels" : [
		"Fp1",
		"Fp2",
		"F3",
		"F4",
		"F7",
		"F8",
		"T3",
		"T4",
		"C3",
        "C4",
        "T5",
        "T6",
        "P3",
        "P4",
        "O1",
        "O2",
        "Fz",
        "Cz",
        "Pz"
  ],

  "channels_to_use" : [
    "EEG Fp1",
    "EEG Fp2",
    "EEG F3",
    "EEG F4",
    "EEG F7",
    "EEG F8",
    "EEG T3",
    "EEG T4",
    "EEG C3",
    "EEG C4",
    "EEG T5",
    "EEG T6",
    "EEG P3",
    "EEG P4",
    "EEG O1",
    "EEG O2",
    "EEG Fz",
    "EEG Cz",
    "EEG Pz"
  ],

  "channels_to_exclude" : [
    "EEG A2-A1",
    "ECG ECG"
  ]

}